Dada2_report
…
## Creating output directory: /Users/ramongallego/fastqs_demultiplexed_for_DADA2/demultiplexed_20190214_1556//filtered

filtR1s <- file.path(filt_path, paste0(good.sample.names, "_R1_filt.fastq.gz"))
filtR2s <- file.path(filt_path, paste0(good.sample.names, "_R2_filt.fastq.gz"))
out_Rs <- filterAndTrim(R1sgood, filtR1s, R2sgood, filtR2s, truncLen=c(200,200),
                      maxN=0, maxEE=c(2,2), truncQ=2, rm.phix=TRUE,
                      compress=TRUE, multithread=TRUE)

out_Fs_tibble<-tibble(file=dimnames(out_Fs)[[1]], reads.out=out_Fs[,2])
out_Rs_tibble<-tibble(file=dimnames(out_Rs)[[1]], reads.out=out_Rs[,2])
out_Fs_tibble

## # A tibble: 72 x 2
##    file                     reads.out
##    <chr>                        <dbl>
##  1 Lib_A_ACACAC_Fwd.1.fastq     47297
##  2 Lib_A_ACAGCA_Fwd.1.fastq     63639
##  3 Lib_A_ACATGT_Fwd.1.fastq     45172
##  4 Lib_A_ACGACG_Fwd.1.fastq     58959
##  5 Lib_A_ATATCG_Fwd.1.fastq     48083
##  6 Lib_A_CTCGCA_Fwd.1.fastq     48196
##  7 Lib_A_GATGAC_Fwd.1.fastq     42309
##  8 Lib_A_GCAGTG_Fwd.1.fastq     38799
##  9 Lib_A_GCGCTC_Fwd.1.fastq     58644
## 10 Lib_A_GTCTCT_Fwd.1.fastq     65658
## # … with 62 more rows
…
