Dada2_report
…
## Creating output directory: /Users/ramongallego/fastqs_demultiplexed_for_DADA2/demultiplexed_20190212_1345//filtered

filtR1s <- file.path(filt_path, paste0(good.sample.names, "_R1_filt.fastq.gz"))
filtR2s <- file.path(filt_path, paste0(good.sample.names, "_R2_filt.fastq.gz"))
out_Rs <- filterAndTrim(R1sgood, filtR1s, R2sgood, filtR2s, truncLen=c(200,200),
                      maxN=0, maxEE=c(2,2), truncQ=2, rm.phix=TRUE,
                      compress=TRUE, multithread=TRUE)

out_Fs_tibble<-tibble(file=dimnames(out_Fs)[[1]], reads.out=out_Fs[,2])
out_Rs_tibble<-tibble(file=dimnames(out_Rs)[[1]], reads.out=out_Rs[,2])
out_Fs_tibble

## # A tibble: 93 x 2
##    file                      reads.out
##    <chr>                         <dbl>
##  1 Lib_13_ACACAC_Fwd.1.fastq     41969
##  2 Lib_13_ACAGCA_Fwd.1.fastq     80288
##  3 Lib_13_ACATGT_Fwd.1.fastq     42750
##  4 Lib_13_ACGACG_Fwd.1.fastq     51548
##  5 Lib_13_ATATCG_Fwd.1.fastq     29796
##  6 Lib_13_ATCAGT_Fwd.1.fastq     92000
##  7 Lib_13_CGACGC_Fwd.1.fastq     73635
##  8 Lib_13_CTCGCA_Fwd.1.fastq     71683
##  9 Lib_13_GATGAC_Fwd.1.fastq     60669
## 10 Lib_13_GCAGTG_Fwd.1.fastq     54092
## # ... with 83 more rows
…
